1201.5162307275505, 93.0932293229323
1206.0904881532929, 93.70725436179983
1210.5964730801438, 94.31211484784843
1215.1024580069948, 94.86748674867488
1219.6084429338457, 95.43385611288403
1224.1144278606964, 96.05521279400668
1228.6204127875474, 96.68756693851205
1233.1263977143983, 97.27043249779524
1237.6323826412493, 97.78731327678223
1242.1383675681, 98.15572830010274
1246.644352494951, 98.37567756775678
1250.974779567509, 98.53553355335535
1255.6563223486528, 98.10623971488059
1260.1623072755037, 97.88629044722654
1264.6682922023547, 97.86429552046114
1269.1742771292054, 97.99076634936222
1273.6802620560563, 98.23271054378165
1278.1862469829073, 98.57363190864541
1282.9758253666928, 98.95448252517559
1286.8158908428156, 99.14828602860287
1291.832212698882, 99.09974597459745
1296.2101866903108, 98.61762176217623
1300.7161716171618, 97.99626508105356
1305.2221565440127, 97.2649337661039
1309.7281414708634, 96.49511132931475
1314.2341263977144, 95.85725845311805
1318.7401113245653, 95.48334469810618
1323.2460962514162, 95.41186118611861
1327.752081178267, 95.637309185464
1332.258066105118, 96.14869123275965
1336.7640510319688, 96.79754157233906
1341.2700359588198, 97.46838683868387
1345.7760208856707, 98.0952422514979
1350.2273878134083, 98.59880388038806
1354.7879907393724, 98.38117629944813
1359.2939756662233, 98.07874605642382
1363.7999605930743, 97.61685259435035
1368.305945519925, 97.13296420551147
1372.811930446776, 96.80853903572176
1377.3179153736269, 96.68206820682069
1381.8239003004778, 96.84703015756122
1386.3298852273288, 97.17695405904227
1390.8358701541797, 97.59485766758495
1395.3418550810304, 98.01276127612762
1399.881976257327, 98.32023202320232
1404.3538249347323, 98.2272118120903
1408.8598098615832, 98.02375873951033
1413.365794788434, 97.82030566693034
1417.871779715285, 97.78181454509087
1422.3777646421358, 98.08974351980653
1426.9520220678785, 98.83184318431844
1430.0662983634759, 99.61220737458362
1434.6668144426383, 100.05828946531017
1439.4563928264238, 99.74452337541447
1442.1085168218315, 99.4342474247425
1443.8836017930153, 98.03090709070908
1446.0993547115904, 96.70956186527744
1449.7721048224225, 93.9866586658666
1455.7971528496132, 90.71411141114112
1460.1051475296783, 90.8633103310331
1462.2944189941381, 92.21954195419542
1463.750898970494, 93.65776577657766
1465.0617309492143, 95.2969376937694
1466.2087089305946, 96.91537153715373
1468.7250381754593, 99.2841204120412
1471.3291463474707, 96.0651105110511
1471.7387813408207, 94.13678167816784
1472.1484163341706, 92.58565056505651
1472.5808088271515, 90.91199786645332
1472.5580513275208, 89.26820682068207
1473.0814738190238, 87.680400040004
1473.2310231023102, 85.81186118611862
1473.5821388108961, 83.83238323832384
1474.1965913009212, 81.39810781078108
1474.1965913009212, 79.58467846784679
1474.6062262942712, 78.15065506550656
1474.4599280823604, 76.71879187918795
1474.8110437909463, 74.73291329132914
1475.1797152849613, 72.34853085308532
1475.5717944928822, 70.55555155515552
1475.2791980690606, 69.08314831483149
1475.9814294862322, 67.53643364336435
1475.8351312743214, 66.11645164516453
1476.0399487709965, 64.63173174460302
1476.2447662676716, 63.233283328332845
1475.8351312743214, 62.25038503850385
1476.7363282596916, 58.01420142014203
1476.8592187576967, 56.386262626262635
1476.7226737599133, 55.37009700970097
1476.8933550071424, 53.80149214921492
1477.4736712477218, 51.34060606060606
1477.7529678340968, 49.0075145696388
1477.8833062410718, 47.14399439943995
1478.292941234422, 44.92079607960797
1478.7903551549184, 42.78899889988999
1479.5218462144721, 35.58107810781078
1479.9314812078223, 33.5006100610061
1480.1362987044972, 31.148794879487966
1480.7507511945223, 30.20790079007901
1480.5459336978474, 28.511771177117723
1481.1376286882419, 26.35695569556958
1481.5700211812227, 24.545974597459747
1481.9796561745727, 23.110871087108706
1481.5700211812227, 22.133013301330124
1483.1061524062854, 18.055245524552447
1483.1207822274764, 16.503490349034905
1483.8815329294123, 15.046640664066416
1484.3350573863356, 13.423022302230237
1484.9495098763607, 11.805020502050212
1485.6151667405547, 10.26413841384138
1486.5734200285701, 8.700790079007902
1487.4642135855377, 7.099989998999888
1488.6874291906802, 5.514471447144729
1490.2406285404659, 4.1182518251825115
1492.3881089601498, 2.7197410650155973
1495.156248460667, 1.6450445044504534
1501.3007733609181, 0.3252725272527357
1505.9433032855525, 0.17932702361144948
1510.4492882124032, 0.014365072870930362
1514.9552731392541, -0.09560956095609185
1519.461258066105, -0.11210575603016082
1524.0355154918477, -0.21154115411539465
1528.473227919807, -0.21108292647446092
1532.979212846658, -0.2000854630917388
1537.4851977735086, -0.21658165816580777
1541.9911827003596, -0.21658165816580777
1546.4971676272105, -0.21658165816580777
1550.9007438057238, -0.1964196419641837
1555.5091374809122, -0.21108292647446092
1560.015122407763, -0.21108292647446092
1564.521107334614, -0.1890879997090451
1569.027092261465, -0.16159434125231087
1573.6354859366534, -0.20650065006500995
1578.0390621151669, -0.16709307294365772
1582.5450470420176, -0.1890879997090451
1587.0510319688685, -0.16709307294365772
1591.5570168957195, -0.17259180463500456
1596.0630018225702, -0.16159434125231087
1600.5007142505297, -0.15609560956096402
1605.074971676272, -0.13959941448689506
1609.580956603123, -0.18358926801769826
1614.086941529974, -0.13959941448689506
1618.592926456825, -0.11760448772150767
1623.2013201320133, -0.1647364736473378
1627.6048963105266, -0.12860195110420136
1632.1108812373775, -0.14509814617827033
1636.6168661642282, -0.15609560956096402
1641.1228510910792, -0.1011082926474387
1645.62883601793, -0.1011082926474387
1650.100684695335, -0.12585258525851373
1654.640805871632, -0.09560956095609185
1659.146790798483, -0.10660702433878555
1663.6527757253339, -0.12860195110420136
1668.1587606521846, -0.09560956095609185
1672.8354268262647, -0.11577157715771591
1677.1707305058865, -0.09560956095609185
1681.6767154327372, -0.09560956095609185
1686.1827003595881, -0.09560956095609185
1690.688685286439, -0.09560956095609185
1695.19467021329, -0.09560956095609185
1699.669144756037, -0.1421372906521583
1704.206640066992, -0.09560956095609185
1708.7126249938428, -0.09560956095609185
1713.2186099206936, -0.09560956095609185
1717.7245948475445, -0.08461209757339816
1722.4012610216246, -0.08048804880488092
1726.7365647012462, -0.0681159024993292
1731.242549628097, -0.07911336588202289
1735.748534554948, -0.09560956095609185
1740.254519481799, -0.0681159024993292
1744.76050440865, -0.08461209757339816
1749.2664893355009, 0.0033676094882082452
1753.7724742623516, -0.08461209757339816
1758.2784591892025, -0.0571184391166355
1762.7844441160535, -0.07911336588202289
1767.2904290429042, -0.03512351235121969
1771.7964139697551, -0.02962478065987284
1776.302398896606, 0.019313931393128314
1780.808383823457, 0.008866341179555093
1785.314368750308, -0.00762985389448545
1789.820353677159, 0.0033676094882082452
1794.3263386040098, -0.024126048968525993
1798.8664597803063, -0.03008300830080657
