207.49158249158245, 0.3007346189164366
220.45454545454538, 0.3114478114478061
233.41750841750843, 0.28466483011936816
246.38047138047136, 0.32751760024487453
259.3434343434343, 0.38108356290172196
272.30639730639723, 0.30609121518210713
285.2693602693603, 0.29537802265073765
298.2323232323232, 0.2900214263850387
311.19528619528614, 0.2900214263850387
324.1582491582492, 0.29537802265073765
337.1212121212121, 0.28466483011936816
350.08417508417506, 0.29537802265073765
363.047138047138, 0.3007346189164366
376.01010101010104, 0.2900214263850387
388.973063973064, 0.30609121518210713
401.9360269360269, 0.29537802265073765
414.89898989898984, 0.3007346189164366
427.8619528619529, 0.29537802265073765
440.8249158249158, 0.3114478114478061
453.78787878787875, 0.3114478114478061
466.7508417508417, 0.29537802265073765
479.71380471380473, 0.30609121518210713
492.67676767676767, 0.28466483011936816
505.6397306397306, 0.2793082338536692
518.6026936026935, 0.2525252525252313
531.5656565656566, 0.26859504132232814
544.5286195286195, 0.25788184879093023
557.4915824915824, 0.3007346189164366
570.4545454545454, 0.3114478114478061
583.4175084175084, 0.2793082338536692
596.3804713804714, 0.2525252525252313
609.3434343434343, 0.2525252525252313
622.3063973063972, 0.26323844505660077
635.2693602693603, 0.30609121518210713
648.2323232323231, 0.3114478114478061
661.1952861952861, 0.2900214263850387
674.1582491582492, 0.30609121518210713
687.121212121212, 0.3007346189164366
700.0841750841751, 0.3114478114478061
713.0471380471381, 0.3114478114478061
726.0101010101009, 0.3114478114478061
738.973063973064, 0.3114478114478061
751.9360269360268, 0.2793082338536692
764.8989898989898, 0.3114478114478061
777.8619528619529, 0.26323844505660077
790.8249158249157, 0.2525252525252313
803.7878787878788, 0.2900214263850387
816.7508417508418, 0.2900214263850387
829.7138047138046, 0.3114478114478061
842.6767676767677, 0.3114478114478061
855.6397306397307, 0.3114478114478061
868.6026936026935, 0.3114478114478061
881.5656565656566, 0.3114478114478061
894.5286195286194, 0.3114478114478061
907.4915824915824, 0.2900214263850387
920.4545454545455, 0.3114478114478061
933.4175084175083, 0.2900214263850387
946.3804713804714, 0.26323844505660077
959.3434343434344, 0.29537802265073765
972.3063973063972, 0.26859504132232814
985.2693602693603, 0.2525252525252313
998.2323232323231, 0.25788184879093023
1011.1952861952861, 0.3114478114478061
1024.1582491582492, 0.26859504132232814
1037.121212121212, 0.3007346189164366
1050.084175084175, 0.30609121518210713
1063.047138047138, 0.3007346189164366
1076.010101010101, 0.28466483011936816
1088.973063973064, 0.30609121518210713
1101.9360269360268, 0.3114478114478061
1114.8989898989898, 0.3114478114478061
1127.861952861953, 0.3114478114478061
1140.8249158249157, 0.3114478114478061
1153.7878787878788, 0.3114478114478061
1166.7508417508418, 0.2793082338536692
1179.7138047138046, 0.2525252525252313
1192.6767676767677, 0.24716865625956075
1205.6397306397305, 0.28466483011936816
1218.6026936026935, 0.25788184879093023
1231.5656565656566, 0.28466483011936816
1244.5286195286194, 0.26859504132232814
1257.4915824915824, 0.3114478114478061
1270.4545454545455, 0.3114478114478061
1283.4175084175083, 0.3114478114478061
1296.3804713804714, 0.3114478114478061
1309.3434343434342, 0.2525252525252313
1322.3063973063972, 0.2525252525252313
1335.2693602693603, 0.2525252525252313
1348.232323232323, 0.2525252525252313
1361.1952861952861, 0.2525252525252313
1374.1582491582492, 0.2525252525252313
1387.121212121212, 0.25788184879093023
1400.084175084175, 0.3007346189164366
1413.047138047138, 0.3114478114478061
1426.010101010101, 0.4346495255585978
1436.1251402918067, 1.37205387205384
1439.7095959595958, 3.4343434343434183
1441.3299663299663, 5.084175084175087
1441.919191919192, 8.295454545454533
1442.0664983164982, 6.9328703703703525
1443.097643097643, 16.043771043771045
1443.097643097643, 11.919191919191917
1443.5886644219977, 10.023849607182939
1444.2760942760942, 12.655723905723903
1444.5439240893786, 14.410009182736474
1444.8653198653199, 16.856902356902367
1445.4545454545455, 21.264309764309758
1445.4545454545455, 19.539842873176212
1445.4545454545455, 18.253367003367003
1446.043771043771, 24.375420875420872
1446.043771043771, 23.079124579124567
1446.6329966329965, 28.240740740740733
1446.6329966329965, 25.736531986531986
1446.6329966329965, 26.94444444444443
1446.900826446281, 30.061983471074385
1447.2222222222222, 56.523569023569024
1447.2222222222222, 43.38383838383838
1447.2222222222222, 31.988215488215474
1447.2222222222222, 33.28451178451178
1447.2222222222222, 34.58080808080807
1447.8114478114478, 35.979236812570136
1447.8114478114478, 37.216610549943866
1447.8114478114478, 39.80920314253646
1447.8114478114478, 61.59090909090908
1447.8114478114478, 38.51290684624017
1448.0792776247322, 41.64294459749004
1448.4006734006734, 47.99158249158249
1448.4006734006734, 46.69528619528619
1448.4006734006734, 45.398989898989896
1448.4006734006734, 44.102693602693606
1448.9898989898988, 51.927609427609426
1448.9898989898988, 50.63131313131312
1448.9898989898988, 49.33501683501683
1448.9898989898988, 53.223905723905716
1449.2577288031832, 55.05586164677072
1449.6862565044382, 60.10177532904805
1449.8410026187803, 57.76748971193415
1450.1683501683501, 67.88089225589225
1450.1683501683501, 63.81032547699215
1450.1683501683501, 62.51402918069584
1450.1683501683501, 66.40291806958473
1450.1683501683501, 65.10662177328844
1450.1683501683501, 71.72558922558922
1450.7575757575758, 70.07575757575756
1450.7575757575758, 72.52693602693601
1450.7575757575758, 73.82323232323232
1451.3468013468014, 75.15291806958473
1451.3468013468014, 77.73569023569023
1451.3468013468014, 81.15319865319864
1451.3468013468014, 76.43939393939394
1451.9360269360268, 79.61139169472501
1451.9360269360268, 83.32154882154882
1451.9360269360268, 82.02525252525251
1452.5252525252524, 85.90628507295173
1452.5252525252524, 84.6590909090909
1452.7930823385368, 87.74181205999388
1453.114478114478, 90.18441995714723
1453.5072951739617, 91.62177328843995
1453.9001122334455, 94.86251402918069
1453.971533516988, 93.05555555555554
1455.117845117845, 96.10774410774411
1458.1908831908831, 98.46283346283346
1466.9612794612794, 99.25715488215488
1478.8439955106621, 98.8397867564534
1485.7182940516275, 98.55990460157126
1492.003367003367, 99.1442199775533
1492.171717171717, 95.15993265993265
1492.5925925925926, 97.06228956228955
1493.181818181818, 93.85690235690234
1493.3501683501684, 91.07744107744107
1493.7710437710437, 92.48597081930414
1494.3602693602693, 88.27104377104376
1494.3602693602693, 86.97474747474747
1494.3602693602693, 89.67732884399551
1494.949494949495, 85.76879910213242
1494.949494949495, 84.47250280583613
1494.949494949495, 83.17620650953984
1495.5387205387206, 80.10241301907969
1495.7070707070707, 75.02525252525253
1495.8333333333333, 81.94865319865319
1496.127946127946, 77.91245791245791
1496.127946127946, 76.41975308641975
1496.7171717171716, 70.10789715335169
1496.864478114478, 73.34595959595958
1496.8855218855217, 63.87205387205387
1497.0117845117845, 71.7550505050505
1497.0117845117845, 68.05765993265993
1497.3063973063972, 66.54040404040404
1497.3063973063972, 65.24410774410774
1497.8956228956229, 60.11784511784511
1498.063973063973, 52.35690235690235
1498.232323232323, 62.31481481481481
1498.337542087542, 57.80513468013467
1498.4848484848485, 54.9719416386083
1498.4848484848485, 53.67564534231201
1498.4848484848485, 56.268237934904604
1499.074074074074, 50.267957351290676
1499.074074074074, 47.93560606060605
1499.6632996632995, 44.91582491582491
1499.6632996632995, 46.212121212121204
1499.6632996632995, 41.03675645342312
1499.6632996632995, 43.61952861952861
1499.6632996632995, 42.32323232323232
1500.2525252525252, 37.9040404040404
1500.2525252525252, 36.513468013468014
1500.3998316498316, 39.67171717171716
1500.4208754208753, 32.575757575757564
1500.8417508417508, 35.27216610549942
1500.8417508417508, 33.97586980920315
1501.4309764309764, 28.19360269360267
1501.5993265993266, 24.225589225589204
1501.645240281604, 30.029843893480262
1501.82379349046, 31.579685746352396
1502.0202020202019, 26.86588103254769
1502.0202020202019, 25.569584736251386
1502.4130190796857, 22.7216610549944
1502.6094276094275, 21.287878787878782
1502.7777777777776, 18.535353535353522
1503.1986531986531, 19.952300785634122
1503.7878787878788, 14.971380471380485
1503.9562289562289, 13.678451178451155
1504.0497568275346, 16.770482603815935
1505.1346801346801, 10.378787878787847
1505.3030303030303, 12.079124579124567
1506.144781144781, 9.102693602693591
1506.3131313131312, 7.643097643097633
1507.4410774410774, 5.738215488215474
1509.1750841750843, 3.905723905723903
1510.858585858586, 2.4158249158249134
1516.652637485971, 0.881032547699192
1529.7138047138046, 0.338230792776244
1542.6767676767677, 0.3114478114478061
1555.6397306397305, 0.30609121518210713
1568.6026936026935, 0.2739516375879987
1581.5656565656566, 0.2900214263850387
1594.5286195286194, 0.24181205999389022
1607.4915824915824, 0.2525252525252313
1620.4545454545455, 0.2525252525252313
1633.4175084175083, 0.2525252525252313
1646.3804713804714, 0.2525252525252313
1659.3434343434342, 0.26859504132232814
1672.3063973063972, 0.2525252525252313
1685.2693602693603, 0.2525252525252313
1698.2323232323233, 0.2525252525252313
1711.195286195286, 0.2525252525252313
1724.158249158249, 0.2739516375879987
1737.121212121212, 0.2525252525252313
1750.084175084175, 0.2525252525252313
1763.047138047138, 0.2900214263850387
1776.0101010101012, 0.25788184879093023
1788.9730639730637, 0.26859504132232814
1798.4006734006734, 0.27609427609428394
